Library/Bee/artifacts/mvdfrm/UnityEditor.Graphs.dll_1BEC99632BDBDC7C.mvfrm
Library/Bee/artifacts/mvdfrm/UnityEditor.CoreModule.dll_170AC1BE66121C4A.mvfrm
Library/Bee/artifacts/mvdfrm/UnityEditor.DeviceSimulatorModule.dll_1C7B1226245A2997.mvfrm
Library/Bee/artifacts/mvdfrm/UnityEditor.DiagnosticsModule.dll_98579E2AD99F9E25.mvfrm
Library/Bee/artifacts/mvdfrm/UnityEditor.GraphViewModule.dll_8A92C481B91EEF5C.mvfrm
Library/Bee/artifacts/mvdfrm/UnityEditor.PackageManagerUIModule.dll_078AA40B50487126.mvfrm
Library/Bee/artifacts/mvdfrm/UnityEditor.QuickSearchModule.dll_23671F3832769A7E.mvfrm
Library/Bee/artifacts/mvdfrm/UnityEditor.SceneTemplateModule.dll_56989FDD0E6934BF.mvfrm
Library/Bee/artifacts/mvdfrm/UnityEditor.TextCoreFontEngineModule.dll_AA212EC6EA665288.mvfrm
Library/Bee/artifacts/mvdfrm/UnityEditor.TextCoreTextEngineModule.dll_F209653879EA0BA6.mvfrm
Library/Bee/artifacts/mvdfrm/UnityEditor.UIBuilderModule.dll_DF1B719E2BD76890.mvfrm
Library/Bee/artifacts/mvdfrm/UnityEditor.UIElementsModule.dll_A5FB9E0FB2D44B46.mvfrm
Library/Bee/artifacts/mvdfrm/UnityEditor.UIElementsSamplesModule.dll_C97978FE9C3C6C87.mvfrm
Library/Bee/artifacts/mvdfrm/UnityEditor.UIServiceModule.dll_180D8301150EB8AA.mvfrm
Library/Bee/artifacts/mvdfrm/UnityEditor.UnityConnectModule.dll_3E09B20CE72AF000.mvfrm
Library/Bee/artifacts/mvdfrm/UnityEditor.dll_9B7C7C8DCC821B2B.mvfrm
Library/Bee/artifacts/mvdfrm/UnityEngine.AIModule.dll_143F8B649720455E.mvfrm
Library/Bee/artifacts/mvdfrm/UnityEngine.ARModule.dll_CDB25067F43DA427.mvfrm
Library/Bee/artifacts/mvdfrm/UnityEngine.AccessibilityModule.dll_893E0B740EDF5C5C.mvfrm
Library/Bee/artifacts/mvdfrm/UnityEngine.AndroidJNIModule.dll_244486E2FBF3BA1C.mvfrm
Library/Bee/artifacts/mvdfrm/UnityEngine.AnimationModule.dll_591840AA937BC402.mvfrm
Library/Bee/artifacts/mvdfrm/UnityEngine.AssetBundleModule.dll_6750522994DD4F70.mvfrm
Library/Bee/artifacts/mvdfrm/UnityEngine.AudioModule.dll_BCFA1C9E86695474.mvfrm
Library/Bee/artifacts/mvdfrm/UnityEngine.ClothModule.dll_23E2799960863358.mvfrm
Library/Bee/artifacts/mvdfrm/UnityEngine.CoreModule.dll_3A2B95110E178775.mvfrm
Library/Bee/artifacts/mvdfrm/UnityEngine.CrashReportingModule.dll_750B7D76C52CD62D.mvfrm
Library/Bee/artifacts/mvdfrm/UnityEngine.DSPGraphModule.dll_C0D8878F7A445BF3.mvfrm
Library/Bee/artifacts/mvdfrm/UnityEngine.DirectorModule.dll_BB87262607E38AD2.mvfrm
Library/Bee/artifacts/mvdfrm/UnityEngine.GIModule.dll_AC7BD47232CF2D78.mvfrm
Library/Bee/artifacts/mvdfrm/UnityEngine.GameCenterModule.dll_4E91D0FDC234AB0D.mvfrm
Library/Bee/artifacts/mvdfrm/UnityEngine.GridModule.dll_179CB0FF266C1D6C.mvfrm
Library/Bee/artifacts/mvdfrm/UnityEngine.HotReloadModule.dll_DA60FEB06EAEDF84.mvfrm
Library/Bee/artifacts/mvdfrm/UnityEngine.IMGUIModule.dll_F559BC054C9AE855.mvfrm
Library/Bee/artifacts/mvdfrm/UnityEngine.ImageConversionModule.dll_8E19D2481639EF0F.mvfrm
Library/Bee/artifacts/mvdfrm/UnityEngine.InputLegacyModule.dll_F8956D482CCF0561.mvfrm
Library/Bee/artifacts/mvdfrm/UnityEngine.InputModule.dll_236FE44EFCA17918.mvfrm
Library/Bee/artifacts/mvdfrm/UnityEngine.JSONSerializeModule.dll_E95594B00E1ABCE6.mvfrm
Library/Bee/artifacts/mvdfrm/UnityEngine.LocalizationModule.dll_FBF2F175302EB5BF.mvfrm
Library/Bee/artifacts/mvdfrm/UnityEngine.ParticleSystemModule.dll_C81DC6C3333E61BB.mvfrm
Library/Bee/artifacts/mvdfrm/UnityEngine.PerformanceReportingModule.dll_54047FC96179D134.mvfrm
Library/Bee/artifacts/mvdfrm/UnityEngine.Physics2DModule.dll_A5BE309B3478BB97.mvfrm
Library/Bee/artifacts/mvdfrm/UnityEngine.PhysicsModule.dll_B919383B772ED5C5.mvfrm
Library/Bee/artifacts/mvdfrm/UnityEngine.ProfilerModule.dll_EDCD5F5CA13D11DF.mvfrm
Library/Bee/artifacts/mvdfrm/UnityEngine.RuntimeInitializeOnLoadManagerInitializerModule.dll_7795EEE79D2BDA60.mvfrm
Library/Bee/artifacts/mvdfrm/UnityEngine.ScreenCaptureModule.dll_033D42352286E948.mvfrm
Library/Bee/artifacts/mvdfrm/UnityEngine.SharedInternalsModule.dll_122B111D8D67EA5F.mvfrm
Library/Bee/artifacts/mvdfrm/UnityEngine.SpriteMaskModule.dll_37BE438DE3A44087.mvfrm
Library/Bee/artifacts/mvdfrm/UnityEngine.SpriteShapeModule.dll_80B17F844A7F877A.mvfrm
Library/Bee/artifacts/mvdfrm/UnityEngine.StreamingModule.dll_0DAD2DFAE3037B40.mvfrm
Library/Bee/artifacts/mvdfrm/UnityEngine.SubstanceModule.dll_EA5842442E56794E.mvfrm
Library/Bee/artifacts/mvdfrm/UnityEngine.SubsystemsModule.dll_A26BA9EFB1EC289A.mvfrm
Library/Bee/artifacts/mvdfrm/UnityEngine.TLSModule.dll_3E719ACE596AAD59.mvfrm
Library/Bee/artifacts/mvdfrm/UnityEngine.TerrainModule.dll_D35FB3AA4CED1EB3.mvfrm
Library/Bee/artifacts/mvdfrm/UnityEngine.TerrainPhysicsModule.dll_C8986F964C815C48.mvfrm
Library/Bee/artifacts/mvdfrm/UnityEngine.TextCoreFontEngineModule.dll_2880AA19FD641153.mvfrm
Library/Bee/artifacts/mvdfrm/UnityEngine.TextCoreTextEngineModule.dll_7068E08B8CE7CA71.mvfrm
Library/Bee/artifacts/mvdfrm/UnityEngine.TextRenderingModule.dll_2C7CB43FD9BE693D.mvfrm
Library/Bee/artifacts/mvdfrm/UnityEngine.TilemapModule.dll_725C1B2B64A9FFBC.mvfrm
Library/Bee/artifacts/mvdfrm/UnityEngine.UIElementsModule.dll_A6AA0B57B5186491.mvfrm
Library/Bee/artifacts/mvdfrm/UnityEngine.UIElementsNativeModule.dll_520458A0C1C0E148.mvfrm
Library/Bee/artifacts/mvdfrm/UnityEngine.UIModule.dll_0FB32991F3674B0A.mvfrm
Library/Bee/artifacts/mvdfrm/UnityEngine.UNETModule.dll_CCD1DCFA5B267CEE.mvfrm
Library/Bee/artifacts/mvdfrm/UnityEngine.UmbraModule.dll_37CEC8B7138FFFE7.mvfrm
Library/Bee/artifacts/mvdfrm/UnityEngine.UnityAnalyticsCommonModule.dll_EF433D0D7B626F92.mvfrm
Library/Bee/artifacts/mvdfrm/UnityEngine.UnityAnalyticsModule.dll_E7BD378CDF65B3B7.mvfrm
Library/Bee/artifacts/mvdfrm/UnityEngine.UnityConnectModule.dll_2B69361BE1B2F0AB.mvfrm
Library/Bee/artifacts/mvdfrm/UnityEngine.UnityCurlModule.dll_8C34E1DC038FB5EF.mvfrm
Library/Bee/artifacts/mvdfrm/UnityEngine.UnityTestProtocolModule.dll_853C2EF0F637C1DD.mvfrm
Library/Bee/artifacts/mvdfrm/UnityEngine.UnityWebRequestAssetBundleModule.dll_A1B11D44C5B347C8.mvfrm
Library/Bee/artifacts/mvdfrm/UnityEngine.UnityWebRequestAudioModule.dll_CC00D3A7E7E49BCC.mvfrm
Library/Bee/artifacts/mvdfrm/UnityEngine.UnityWebRequestModule.dll_9FB8D9F2212E898E.mvfrm
Library/Bee/artifacts/mvdfrm/UnityEngine.UnityWebRequestTextureModule.dll_6B08E50408C5E321.mvfrm
Library/Bee/artifacts/mvdfrm/UnityEngine.UnityWebRequestWWWModule.dll_3B2B25E77CA786DD.mvfrm
Library/Bee/artifacts/mvdfrm/UnityEngine.VFXModule.dll_BF50333D2FD816C6.mvfrm
Library/Bee/artifacts/mvdfrm/UnityEngine.VRModule.dll_628550179521D082.mvfrm
Library/Bee/artifacts/mvdfrm/UnityEngine.VehiclesModule.dll_334A1FA5820D5A6D.mvfrm
Library/Bee/artifacts/mvdfrm/UnityEngine.VideoModule.dll_E203A10948FB7019.mvfrm
Library/Bee/artifacts/mvdfrm/UnityEngine.WindModule.dll_B07A70399F4E05DE.mvfrm
Library/Bee/artifacts/mvdfrm/UnityEngine.XRModule.dll_9544131C1E5C1DE0.mvfrm
Library/Bee/artifacts/mvdfrm/UnityEngine.dll_CE20C3662AF5A810.mvfrm
Library/Bee/artifacts/mvdfrm/Unity.Android.Gradle.dll_D366EFE4F0168B32.mvfrm
Library/Bee/artifacts/mvdfrm/Unity.Android.Types.dll_920B2AA584B2B32A.mvfrm
Library/Bee/artifacts/mvdfrm/UnityEditor.Android.Extensions.dll_957CD79404722AB2.mvfrm
Library/Bee/artifacts/mvdfrm/UnityEditor.LinuxStandalone.Extensions.dll_21452BDFCF166FA6.mvfrm
Library/Bee/artifacts/mvdfrm/Unity.Plastic.Antlr3.Runtime.dll_473A12AC2B8CF3AD.mvfrm
Library/Bee/artifacts/mvdfrm/Unity.Plastic.Newtonsoft.Json.dll_EE94E071ACF4F438.mvfrm