Library/Bee/artifacts/mvdfrm/Unity.Services.Core.Internal.ref.dll_BF666932C0B27755.mvfrm
Library/Bee/artifacts/mvdfrm/Unity.Services.Core.ref.dll_FF91F9BC6398EB7C.mvfrm
Library/Bee/artifacts/mvdfrm/UnityEngine.UI.ref.dll_AFC2E85BC2EDBC0B.mvfrm
Library/Bee/artifacts/mvdfrm/UnityEngine.AIModule.dll_F98B80EAF21FF6DB.mvfrm
Library/Bee/artifacts/mvdfrm/UnityEngine.ARModule.dll_B2FE45EE4F3D55A4.mvfrm
Library/Bee/artifacts/mvdfrm/UnityEngine.AccessibilityModule.dll_C6FF117A1DA0EE6F.mvfrm
Library/Bee/artifacts/mvdfrm/UnityEngine.AndroidJNIModule.dll_642C295E82972A19.mvfrm
Library/Bee/artifacts/mvdfrm/UnityEngine.AnimationModule.dll_07ED1981EA3A1955.mvfrm
Library/Bee/artifacts/mvdfrm/UnityEngine.AssetBundleModule.dll_94A09990818ADD23.mvfrm
Library/Bee/artifacts/mvdfrm/UnityEngine.AudioModule.dll_CA5CC63760619D07.mvfrm
Library/Bee/artifacts/mvdfrm/UnityEngine.ClothModule.dll_314523323A7E7BEB.mvfrm
Library/Bee/artifacts/mvdfrm/UnityEngine.CoreModule.dll_174013F97E77FA92.mvfrm
Library/Bee/artifacts/mvdfrm/UnityEngine.CrashReportingModule.dll_A6BF1C1C164BDD6A.mvfrm
Library/Bee/artifacts/mvdfrm/UnityEngine.DSPGraphModule.dll_6481D13FBB782E50.mvfrm
Library/Bee/artifacts/mvdfrm/UnityEngine.DirectorModule.dll_5F306FD649175D2F.mvfrm
Library/Bee/artifacts/mvdfrm/UnityEngine.GIModule.dll_91C7C9F88DCEDEF5.mvfrm
Library/Bee/artifacts/mvdfrm/UnityEngine.GameCenterModule.dll_8E79737948D81B0A.mvfrm
Library/Bee/artifacts/mvdfrm/UnityEngine.GridModule.dll_F4B12FE796CC9089.mvfrm
Library/Bee/artifacts/mvdfrm/UnityEngine.HotReloadModule.dll_8935D787C56D34D7.mvfrm
Library/Bee/artifacts/mvdfrm/UnityEngine.IMGUIModule.dll_02BC659E269330E8.mvfrm
Library/Bee/artifacts/mvdfrm/UnityEngine.ImageConversionModule.dll_8185D3114D05D182.mvfrm
Library/Bee/artifacts/mvdfrm/UnityEngine.InputLegacyModule.dll_25E5B4AF197C9314.mvfrm
Library/Bee/artifacts/mvdfrm/UnityEngine.InputModule.dll_30D28DE7D699C1AB.mvfrm
Library/Bee/artifacts/mvdfrm/UnityEngine.JSONSerializeModule.dll_27169AB61CDC4EF9.mvfrm
Library/Bee/artifacts/mvdfrm/UnityEngine.LocalizationModule.dll_E72F0964B3F3B75C.mvfrm
Library/Bee/artifacts/mvdfrm/UnityEngine.ParticleSystemModule.dll_F9D16568845D68F8.mvfrm
Library/Bee/artifacts/mvdfrm/UnityEngine.PerformanceReportingModule.dll_D5DAB388406AA151.mvfrm
Library/Bee/artifacts/mvdfrm/UnityEngine.Physics2DModule.dll_549309728B3710EA.mvfrm
Library/Bee/artifacts/mvdfrm/UnityEngine.PhysicsModule.dll_3526AFB295813EB8.mvfrm
Library/Bee/artifacts/mvdfrm/UnityEngine.ProfilerModule.dll_9176A90CE270E43C.mvfrm
Library/Bee/artifacts/mvdfrm/UnityEngine.RuntimeInitializeOnLoadManagerInitializerModule.dll_C5F177790FA555B3.mvfrm
Library/Bee/artifacts/mvdfrm/UnityEngine.ScreenCaptureModule.dll_40FE483B31487B5B.mvfrm
Library/Bee/artifacts/mvdfrm/UnityEngine.SharedInternalsModule.dll_059711E6C433CCD2.mvfrm
Library/Bee/artifacts/mvdfrm/UnityEngine.SpriteMaskModule.dll_77A5E6096A47B084.mvfrm
Library/Bee/artifacts/mvdfrm/UnityEngine.SpriteShapeModule.dll_AE01C6EB372D152D.mvfrm
Library/Bee/artifacts/mvdfrm/UnityEngine.StreamingModule.dll_BC8206D239C1D093.mvfrm
Library/Bee/artifacts/mvdfrm/UnityEngine.SubstanceModule.dll_992D1B1B8514CEA1.mvfrm
Library/Bee/artifacts/mvdfrm/UnityEngine.SubsystemsModule.dll_E2534C6B388F9897.mvfrm
Library/Bee/artifacts/mvdfrm/UnityEngine.TLSModule.dll_43B2E78378D9218C.mvfrm
Library/Bee/artifacts/mvdfrm/UnityEngine.TerrainModule.dll_4F6D2B216B3F87A6.mvfrm
Library/Bee/artifacts/mvdfrm/UnityEngine.TerrainPhysicsModule.dll_FA4C0E3B9DA06385.mvfrm
Library/Bee/artifacts/mvdfrm/UnityEngine.TextCoreFontEngineModule.dll_1DE47823670A7FD0.mvfrm
Library/Bee/artifacts/mvdfrm/UnityEngine.TextCoreTextEngineModule.dll_65CCAE94F68E38EE.mvfrm
Library/Bee/artifacts/mvdfrm/UnityEngine.TextRenderingModule.dll_6A3DBA45E87FFB50.mvfrm
Library/Bee/artifacts/mvdfrm/UnityEngine.TilemapModule.dll_EE6992A282FC68AF.mvfrm
Library/Bee/artifacts/mvdfrm/UnityEngine.UIElementsModule.dll_E691ADD33BBBD48E.mvfrm
Library/Bee/artifacts/mvdfrm/UnityEngine.UIElementsNativeModule.dll_2C839D9C72C8E225.mvfrm
Library/Bee/artifacts/mvdfrm/UnityEngine.UIModule.dll_F4FF1F184E66FC87.mvfrm
Library/Bee/artifacts/mvdfrm/UnityEngine.UNETModule.dll_A9E65BE2CB86F00B.mvfrm
Library/Bee/artifacts/mvdfrm/UnityEngine.UmbraModule.dll_4531724FED88487A.mvfrm
Library/Bee/artifacts/mvdfrm/UnityEngine.UnityAnalyticsCommonModule.dll_711970CC5A533FAF.mvfrm
Library/Bee/artifacts/mvdfrm/UnityEngine.UnityAnalyticsModule.dll_1970D6323084BAF4.mvfrm
Library/Bee/artifacts/mvdfrm/UnityEngine.UnityConnectModule.dll_16A54E0B6577F248.mvfrm
Library/Bee/artifacts/mvdfrm/UnityEngine.UnityCurlModule.dll_3B09BAB35A4E0B42.mvfrm
Library/Bee/artifacts/mvdfrm/UnityEngine.UnityTestProtocolModule.dll_ECD76BF86605C0B0.mvfrm
Library/Bee/artifacts/mvdfrm/UnityEngine.UnityWebRequestAssetBundleModule.dll_33DDF9C3395BF4C5.mvfrm
Library/Bee/artifacts/mvdfrm/UnityEngine.UnityWebRequestAudioModule.dll_4DD70766C6D56BE9.mvfrm
Library/Bee/artifacts/mvdfrm/UnityEngine.UnityWebRequestModule.dll_9324DABB57FA6C01.mvfrm
Library/Bee/artifacts/mvdfrm/UnityEngine.UnityWebRequestTextureModule.dll_259C9FA2F57388DE.mvfrm
Library/Bee/artifacts/mvdfrm/UnityEngine.UnityWebRequestWWWModule.dll_308EF3F0E64DF55A.mvfrm
Library/Bee/artifacts/mvdfrm/UnityEngine.VFXModule.dll_C4917FF24F468AF9.mvfrm
Library/Bee/artifacts/mvdfrm/UnityEngine.VRModule.dll_47D1459DF02181FF.mvfrm
Library/Bee/artifacts/mvdfrm/UnityEngine.VehiclesModule.dll_D6F36955C3412CCA.mvfrm
Library/Bee/artifacts/mvdfrm/UnityEngine.VideoModule.dll_EF664AA222F3B8AC.mvfrm
Library/Bee/artifacts/mvdfrm/UnityEngine.WindModule.dll_8D8EEF220FAE78FB.mvfrm
Library/Bee/artifacts/mvdfrm/UnityEngine.XRModule.dll_7A9008A2795BCF5D.mvfrm
Library/Bee/artifacts/mvdfrm/UnityEngine.dll_59E814C30512EA63.mvfrm